%YAML 1.1
%TAG !u! tag:unity3d.com,2011:
--- !u!114 &11400000
MonoBehaviour:
  m_ObjectHideFlags: 0
  m_CorrespondingSourceObject: {fileID: 0}
  m_PrefabInstance: {fileID: 0}
  m_PrefabAsset: {fileID: 0}
  m_GameObject: {fileID: 0}
  m_Enabled: 1
  m_EditorHideFlags: 0
  m_Script: {fileID: 11500000, guid: 39423c342f0acfa47889e10bd0f35985, type: 3}
  m_Name: NormalSetting
  m_EditorClassIdentifier: 
  targetLocalPosition: {x: 0, y: 1.2, z: 0}
  distanceToCamera: 3.5
