%YAML 1.1
%TAG !u! tag:unity3d.com,2011:
--- !u!114 &11400000
MonoBehaviour:
  m_ObjectHideFlags: 0
  m_CorrespondingSourceObject: {fileID: 0}
  m_PrefabInstance: {fileID: 0}
  m_PrefabAsset: {fileID: 0}
  m_GameObject: {fileID: 0}
  m_Enabled: 1
  m_EditorHideFlags: 0
  m_Script: {fileID: 11500000, guid: f47222897a906df4f87f1f02fc026303, type: 3}
  m_Name: 8ChainmailCursed
  m_EditorClassIdentifier: 
  name: Corrupted
  icon: {fileID: 21300000, guid: e75b6b4fff2d5d5488673807e1099e14, type: 3}
  attribute: armor
  showInInventory: 1
  attackIncrease: 0
  attackSpeedBuff: 1
  healthRestore: 0
  Attack: -15
  Defence: 30
  Cost: 500
  Type: 2
