%YAML 1.1
%TAG !u! tag:unity3d.com,2011:
--- !u!114 &11400000
MonoBehaviour:
  m_ObjectHideFlags: 0
  m_CorrespondingSourceObject: {fileID: 0}
  m_PrefabInstance: {fileID: 0}
  m_PrefabAsset: {fileID: 0}
  m_GameObject: {fileID: 0}
  m_Enabled: 1
  m_EditorHideFlags: 0
  m_Script: {fileID: 11500000, guid: f47222897a906df4f87f1f02fc026303, type: 3}
  m_Name: Sword13_Blue
  m_EditorClassIdentifier: 
  name: Sword13_Blue
  icon: {fileID: 21300000, guid: 3b53e3c9a6d0d644689b3ec0b40a2b4f, type: 3}
  showInInventory: 1
  attackIncrease: 0
  attackSpeedBuff: 1
  healthRestore: 0
