%YAML 1.1
%TAG !u! tag:unity3d.com,2011:
--- !u!114 &11400000
MonoBehaviour:
  m_ObjectHideFlags: 0
  m_CorrespondingSourceObject: {fileID: 0}
  m_PrefabInstance: {fileID: 0}
  m_PrefabAsset: {fileID: 0}
  m_GameObject: {fileID: 0}
  m_Enabled: 1
  m_EditorHideFlags: 0
  m_Script: {fileID: 11500000, guid: f47222897a906df4f87f1f02fc026303, type: 3}
  m_Name: Bread
  m_EditorClassIdentifier: 
  name: Bread
  icon: {fileID: 21300000, guid: 9a82544a4e8ea82448062dac5853f931, type: 3}
  attribute: consuming
  showInInventory: 1
  attackIncrease: 0
  attackSpeedBuff: 0
  healthRestore: 10
