%YAML 1.1
%TAG !u! tag:unity3d.com,2011:
--- !u!114 &11400000
MonoBehaviour:
  m_ObjectHideFlags: 0
  m_CorrespondingSourceObject: {fileID: 0}
  m_PrefabInstance: {fileID: 0}
  m_PrefabAsset: {fileID: 0}
  m_GameObject: {fileID: 0}
  m_Enabled: 1
  m_EditorHideFlags: 0
  m_Script: {fileID: 11500000, guid: aea810189a9eb2244bfe0fb46a7ae545, type: 3}
  m_Name: Magic Hand
  m_EditorClassIdentifier: 
  mainWeapon: {fileID: 8105931490005497685, guid: a8327fb32b866ee49adfad5b6e71d98f, type: 3}
  secondaryWeapon: {fileID: 0}
