%YAML 1.1
%TAG !u! tag:unity3d.com,2011:
--- !u!114 &11400000
MonoBehaviour:
  m_ObjectHideFlags: 0
  m_CorrespondingSourceObject: {fileID: 0}
  m_PrefabInstance: {fileID: 0}
  m_PrefabAsset: {fileID: 0}
  m_GameObject: {fileID: 0}
  m_Enabled: 1
  m_EditorHideFlags: 0
  m_Script: {fileID: 11500000, guid: aea810189a9eb2244bfe0fb46a7ae545, type: 3}
  m_Name: Paws
  m_EditorClassIdentifier: 
  mainWeapon: {fileID: 8592768735587812027, guid: 5828bd6f3191eba41bbaf5cca783fdfa, type: 3}
  secondaryWeapon: {fileID: 0}
