%YAML 1.1
%TAG !u! tag:unity3d.com,2011:
--- !u!114 &11400000
MonoBehaviour:
  m_ObjectHideFlags: 0
  m_CorrespondingSourceObject: {fileID: 0}
  m_PrefabInstance: {fileID: 0}
  m_PrefabAsset: {fileID: 0}
  m_GameObject: {fileID: 0}
  m_Enabled: 1
  m_EditorHideFlags: 0
  m_Script: {fileID: 11500000, guid: 9db31faac8f16db48ac892a13ab93c75, type: 3}
  m_Name: Wizard
  m_EditorClassIdentifier: 
  enemyPrefab: {fileID: 3599046329605038243, guid: e2fa6bbdf11005845a3ee82e18f49d5b, type: 3}
  spawnRate: 20
  spawnDelay: 20
  spawnTimer: 9.018952
