%YAML 1.1
%TAG !u! tag:unity3d.com,2011:
--- !u!114 &11400000
MonoBehaviour:
  m_ObjectHideFlags: 0
  m_CorrespondingSourceObject: {fileID: 0}
  m_PrefabInstance: {fileID: 0}
  m_PrefabAsset: {fileID: 0}
  m_GameObject: {fileID: 0}
  m_Enabled: 1
  m_EditorHideFlags: 0
  m_Script: {fileID: 11500000, guid: f47222897a906df4f87f1f02fc026303, type: 3}
  m_Name: 9Chainmail 1
  m_EditorClassIdentifier: 
  name: Platemail
  icon: {fileID: 21300000, guid: 4a7d2ca9be3c6104ba58f549990fd519, type: 3}
  attribute: bow
  showInInventory: 1
  attackIncrease: 0
  attackSpeedBuff: 1
  healthRestore: 0
  Attack: 10
  Defence: 15
  Cost: 999
  Type: 1
